﻿object={
	name="tree_jungle_01_c_generator_1_0"
	clamp_to_water_level=no
	render_under_water=no
	generated_content=yes
	layer="tree_high_layer"
	pdxmesh="tree_jungle_01_c_mesh"
	count=252
	transform="359.808075 0.000000 231.392242 0.000000 0.767380 0.000000 -0.641192 0.928151 0.928151 0.928151
353.628326 0.000000 232.821716 0.000000 0.937665 0.000000 0.347541 0.886442 0.886442 0.886442
350.687286 0.000000 236.147171 0.000000 0.362012 0.000000 0.932173 0.875726 0.875726 0.875726
354.712463 0.000000 235.981964 0.000000 0.409541 0.000000 0.912292 0.825141 0.825141 0.825141
1792.153687 0.000000 3.293119 0.000000 0.722887 0.000000 -0.690966 0.906856 0.906856 0.906856
1801.456421 0.000000 10.245461 0.000000 0.602783 0.000000 0.797905 0.895849 0.895849 0.895849
1798.569580 0.000000 4.687457 0.000000 0.291159 0.000000 0.956675 0.882806 0.882806 0.882806
2019.253540 0.000000 0.562499 0.000000 0.455539 0.000000 -0.890216 0.917267 0.917267 0.917267
1808.847656 0.000000 273.355072 0.000000 0.576598 0.000000 -0.817028 0.917189 0.917189 0.917189
5042.566406 0.000000 1142.299927 0.000000 0.363513 0.000000 -0.931589 0.937709 0.937709 0.937709
5053.557617 0.000000 1138.820557 0.000000 0.991423 0.000000 -0.130692 0.903534 0.903534 0.903534
5047.044922 0.000000 1145.484863 0.000000 0.539783 0.000000 0.841804 0.879765 0.879765 0.879765
5043.261230 0.000000 1129.440796 0.000000 0.848341 0.000000 -0.529450 0.931341 0.931341 0.931341
5043.899414 0.000000 1138.280029 0.000000 0.065317 0.000000 0.997865 0.818819 0.818819 0.818819
5040.666016 0.000000 1139.291016 0.000000 0.325833 0.000000 -0.945427 0.969592 0.969592 0.969592
5045.760254 0.000000 1142.509399 0.000000 0.754521 0.000000 0.656276 0.869439 0.869439 0.869439
5043.757813 0.000000 1145.550171 0.000000 0.984292 0.000000 0.176550 0.892423 0.892423 0.892423
5071.823730 0.000000 1133.092407 0.000000 0.042754 0.000000 0.999086 0.814167 0.814167 0.814167
5055.883789 0.000000 1138.850952 0.000000 0.776660 0.000000 0.629920 0.863252 0.863252 0.863252
5068.810547 0.000000 1144.182373 0.000000 0.346121 0.000000 -0.938190 0.932823 0.932823 0.932823
5073.463867 0.000000 1140.178589 0.000000 0.904686 0.000000 0.426078 0.892088 0.892088 0.892088
5071.755371 0.000000 1149.875854 0.000000 0.963576 0.000000 -0.267436 0.915208 0.915208 0.915208
5069.366211 0.000000 1137.393921 0.000000 0.658032 0.000000 0.752990 0.886590 0.886590 0.886590
5067.441406 0.000000 1133.388428 0.000000 0.311012 0.000000 0.950406 0.835167 0.835167 0.835167
5077.153320 0.000000 1142.080444 0.000000 0.103141 0.000000 -0.994667 0.982431 0.982431 0.982431
5066.983398 0.000000 1129.315186 0.000000 0.172876 0.000000 -0.984944 0.978475 0.978475 0.978475
5069.003906 0.000000 1147.754395 0.000000 0.986976 0.000000 -0.160867 0.907260 0.907260 0.907260
5062.965820 0.000000 1134.382813 0.000000 0.884265 0.000000 -0.466985 0.927293 0.927293 0.927293
5069.410645 0.000000 1131.115723 0.000000 0.996368 0.000000 -0.085150 0.904214 0.904214 0.904214
5069.670898 0.000000 1134.776001 0.000000 0.401467 0.000000 0.915873 0.834971 0.834971 0.834971
4979.095215 0.000000 1252.537476 0.000000 0.679178 0.000000 0.733974 0.853705 0.853705 0.853705
4952.413574 0.000000 1238.035278 0.000000 0.679269 0.000000 -0.733889 0.946288 0.946288 0.946288
4942.981445 0.000000 1248.651978 0.000000 0.999228 0.000000 0.039299 0.899558 0.899558 0.899558
4950.125977 0.000000 1230.022827 0.000000 0.853951 0.000000 -0.520354 0.915985 0.915985 0.915985
4984.092285 0.000000 1255.299316 0.000000 0.521858 0.000000 0.853032 0.847196 0.847196 0.847196
4979.269043 0.000000 1257.409546 0.000000 0.960544 0.000000 0.278130 0.893034 0.893034 0.893034
4943.180664 0.000000 1252.601563 0.000000 0.550269 0.000000 -0.834987 0.955504 0.955504 0.955504
4990.057617 0.000000 1240.018921 0.000000 0.042309 0.000000 0.999105 0.855354 0.855354 0.855354
4981.032715 0.000000 1254.955811 0.000000 0.919508 0.000000 0.393072 0.867324 0.867324 0.867324
4951.917480 0.000000 1241.017212 0.000000 0.980633 0.000000 0.195854 0.889813 0.889813 0.889813
5028.595215 0.000000 1197.636353 0.000000 0.042900 0.000000 0.999079 0.824474 0.824474 0.824474
5033.999023 0.000000 1199.553589 0.000000 0.653401 0.000000 0.757012 0.859481 0.859481 0.859481
5032.749512 0.000000 1195.242432 0.000000 0.883365 0.000000 0.468686 0.869311 0.869311 0.869311
5028.672852 0.000000 1193.998047 0.000000 0.648059 0.000000 0.761590 0.855259 0.855259 0.855259
5030.620605 0.000000 1200.416626 0.000000 0.298634 0.000000 0.954368 0.840192 0.840192 0.840192
5031.699219 0.000000 1197.831665 0.000000 0.659156 0.000000 0.752006 0.852192 0.852192 0.852192
5030.318848 0.000000 1195.902100 0.000000 0.984783 0.000000 0.173789 0.880376 0.880376 0.880376
5102.932617 0.000000 1153.146851 0.000000 0.360024 0.000000 -0.932943 0.981057 0.981057 0.981057
5108.267090 0.000000 1159.021973 0.000000 0.934447 0.000000 -0.356101 0.908999 0.908999 0.908999
5071.975586 0.000000 1155.473511 0.000000 0.998950 0.000000 0.045809 0.897941 0.897941 0.897941
5106.602051 0.000000 1155.167969 0.000000 0.568808 0.000000 0.822470 0.841412 0.841412 0.841412
5072.912598 0.000000 1151.724487 0.000000 0.289458 0.000000 0.957191 0.865565 0.865565 0.865565
5106.391602 0.000000 1161.890747 0.000000 0.702864 0.000000 0.711325 0.875106 0.875106 0.875106
5104.439453 0.000000 1157.470703 0.000000 0.999088 0.000000 0.042694 0.897601 0.897601 0.897601
5107.323242 0.000000 1152.155518 0.000000 0.002019 0.000000 -0.999998 0.970498 0.970498 0.970498
5105.070801 0.000000 1152.378174 0.000000 0.809785 0.000000 -0.586727 0.960580 0.960580 0.960580
5104.610352 0.000000 1154.324707 0.000000 0.466784 0.000000 -0.884372 1.012158 1.012158 1.012158
5039.668945 0.000000 1237.646484 0.000000 0.086999 0.000000 0.996208 0.829993 0.829993 0.829993
5028.595215 0.000000 1261.620728 0.000000 0.873736 0.000000 -0.486400 0.907989 0.907989 0.907989
5034.375977 0.000000 1223.649780 0.000000 0.907058 0.000000 -0.421005 0.911717 0.911717 0.911717
4991.621094 0.000000 1240.581665 0.000000 0.994042 0.000000 -0.108998 0.903190 0.903190 0.903190
4992.104492 0.000000 1249.868774 0.000000 0.034809 0.000000 0.999394 0.855135 0.855135 0.855135
5026.913086 0.000000 1226.848022 0.000000 0.919734 0.000000 0.392541 0.888217 0.888217 0.888217
5031.237793 0.000000 1255.142212 0.000000 0.271290 0.000000 -0.962498 0.958242 0.958242 0.958242
5025.058105 0.000000 1256.571655 0.000000 0.422185 0.000000 -0.906510 0.951002 0.951002 0.951002
5028.817383 0.000000 1221.447266 0.000000 0.318112 0.000000 0.948053 0.866376 0.866376 0.866376
4994.152832 0.000000 1245.245239 0.000000 0.998117 0.000000 0.061335 0.898897 0.898897 0.898897
5031.625488 0.000000 1227.738159 0.000000 0.606022 0.000000 -0.795448 0.928932 0.928932 0.928932
5027.404297 0.000000 1252.843872 0.000000 0.910857 0.000000 0.412723 0.889485 0.889485 0.889485
5032.804199 0.000000 1250.136108 0.000000 0.882728 0.000000 -0.469885 0.952756 0.952756 0.952756
5028.672852 0.000000 1257.982422 0.000000 0.752278 0.000000 -0.658846 0.925858 0.925858 0.925858
5025.135742 0.000000 1262.656128 0.000000 0.839614 0.000000 0.543184 0.869035 0.869035 0.869035
5032.059082 0.000000 1220.992554 0.000000 0.192979 0.000000 0.981203 0.822673 0.822673 0.822673
5035.755371 0.000000 1248.775513 0.000000 0.996979 0.000000 -0.077671 0.904367 0.904367 0.904367
5028.979980 0.000000 1229.435425 0.000000 0.891416 0.000000 0.453185 0.873580 0.873580 0.873580
4991.440430 0.000000 1243.686890 0.000000 0.302095 0.000000 0.953278 0.829003 0.829003 0.829003
5033.808105 0.000000 1253.036987 0.000000 0.980247 0.000000 0.197776 0.884791 0.884791 0.884791
5030.820801 0.000000 1252.260010 0.000000 0.216095 0.000000 0.976372 0.772320 0.772320 0.772320
5037.236816 0.000000 1236.261719 0.000000 0.959212 0.000000 -0.282687 0.916099 0.916099 0.916099
5027.852539 0.000000 1255.449463 0.000000 0.744585 0.000000 -0.667527 0.941055 0.941055 0.941055
5139.013672 0.000000 1160.742310 0.000000 0.808263 0.000000 0.588821 0.864634 0.864634 0.864634
5135.580566 0.000000 1178.306396 0.000000 0.983715 0.000000 0.179737 0.897970 0.897970 0.897970
5131.980957 0.000000 1181.352539 0.000000 0.997416 0.000000 -0.071838 0.902423 0.902423 0.902423
5137.749512 0.000000 1165.026855 0.000000 0.274758 0.000000 0.961513 0.844824 0.844824 0.844824
5138.115234 0.000000 1157.761719 0.000000 0.122324 0.000000 0.992490 0.818653 0.818653 0.818653
5135.346191 0.000000 1181.848389 0.000000 0.497590 0.000000 -0.867412 0.958980 0.958980 0.958980
5815.937012 0.000000 1204.072876 0.000000 0.955495 0.000000 0.295007 0.898654 0.898654 0.898654
5799.618164 0.000000 1213.659424 0.000000 0.137366 0.000000 0.990520 0.883901 0.883901 0.883901
5819.847656 0.000000 1212.439453 0.000000 0.978642 0.000000 0.205572 0.899070 0.899070 0.899070
5819.754395 0.000000 1195.528198 0.000000 0.338355 0.000000 -0.941019 0.913769 0.913769 0.913769
5809.658691 0.000000 1212.111206 0.000000 0.139611 0.000000 0.990206 0.887141 0.887141 0.887141
5821.463867 0.000000 1202.804932 0.000000 0.803237 0.000000 -0.595659 0.911470 0.911470 0.911470
5822.655762 0.000000 1207.788574 0.000000 0.988702 0.000000 0.149894 0.897633 0.897633 0.897633
5825.264648 0.000000 1194.730103 0.000000 0.999915 0.000000 -0.013024 0.900117 0.900117 0.900117
5828.850586 0.000000 1210.274780 0.000000 0.793065 0.000000 -0.609137 0.904415 0.904415 0.904415
5823.790039 0.000000 1202.835327 0.000000 0.808657 0.000000 0.588280 0.885869 0.885869 0.885869
5807.575195 0.000000 1237.646484 0.000000 0.583664 0.000000 0.811995 0.893613 0.893613 0.893613
5814.350098 0.000000 1216.455322 0.000000 0.920645 0.000000 -0.390400 0.900901 0.900901 0.900901
5802.282227 0.000000 1223.649780 0.000000 0.249917 0.000000 0.968267 0.879267 0.879267 0.879267
5794.792480 0.000000 1216.265625 0.000000 0.795587 0.000000 0.605839 0.894151 0.894151 0.894151
5809.055664 0.000000 1229.184814 0.000000 0.062874 0.000000 0.998021 0.886448 0.886448 0.886448
5806.846680 0.000000 1217.131226 0.000000 0.640848 0.000000 0.767668 0.884268 0.884268 0.884268
5800.731934 0.000000 1217.774292 0.000000 0.977084 0.000000 -0.212856 0.903374 0.903374 0.903374
5823.661621 0.000000 1218.996216 0.000000 0.981544 0.000000 -0.191238 0.901297 0.901297 0.901297
5753.715332 0.000000 1357.197388 0.000000 0.448059 0.000000 -0.894004 0.909942 0.909942 0.909942
5780.262695 0.000000 1338.733765 0.000000 0.725764 0.000000 -0.687944 0.901705 0.901705 0.901705
5807.575195 0.000000 1301.630859 0.000000 0.162743 0.000000 0.986668 0.893676 0.893676 0.893676
5815.937012 0.000000 1332.041626 0.000000 0.136600 0.000000 -0.990626 0.925772 0.925772 0.925772
5782.270508 0.000000 1311.119385 0.000000 0.817583 0.000000 -0.575810 0.902757 0.902757 0.902757
5761.272461 0.000000 1322.698853 0.000000 0.509190 0.000000 -0.860654 0.904658 0.904658 0.904658
5796.501465 0.000000 1325.605103 0.000000 0.246826 0.000000 -0.969060 0.905938 0.905938 0.905938
5810.993652 0.000000 1316.521851 0.000000 0.734519 0.000000 0.678588 0.894973 0.894973 0.894973
5764.858398 0.000000 1338.243530 0.000000 0.921872 0.000000 -0.387493 0.901788 0.901788 0.901788
5776.363281 0.000000 1297.105103 0.000000 0.999065 0.000000 -0.043242 0.900097 0.900097 0.900097
5767.463867 0.000000 1309.011963 0.000000 0.975924 0.000000 -0.218110 0.903458 0.903458 0.903458
5796.645020 0.000000 1312.817871 0.000000 0.008006 0.000000 0.999968 0.878931 0.878931 0.878931
5804.939941 0.000000 1332.142822 0.000000 0.544490 0.000000 0.838767 0.882114 0.882114 0.882114
5809.658691 0.000000 1340.079956 0.000000 0.485712 0.000000 -0.874119 0.904780 0.904780 0.904780
5770.669434 0.000000 1317.495605 0.000000 0.976124 0.000000 -0.217216 0.901476 0.901476 0.901476
5760.010742 0.000000 1313.853149 0.000000 0.682422 0.000000 -0.730958 0.905525 0.905525 0.905525
5805.186035 0.000000 1322.988037 0.000000 0.903476 0.000000 -0.428638 0.910949 0.910949 0.910949
5805.434570 0.000000 1309.973877 0.000000 0.328414 0.000000 -0.944534 0.913888 0.913888 0.913888
5775.502441 0.000000 1306.275146 0.000000 0.875795 0.000000 0.482682 0.896605 0.896605 0.896605
5768.098145 0.000000 1300.015625 0.000000 0.453616 0.000000 0.891197 0.885171 0.885171 0.885171
5772.724609 0.000000 1336.135498 0.000000 0.135610 0.000000 0.990762 0.887105 0.887105 0.887105
5790.230469 0.000000 1307.946899 0.000000 0.774507 0.000000 0.632565 0.893845 0.893845 0.893845
5799.224609 0.000000 1305.271240 0.000000 0.915103 0.000000 0.403220 0.892540 0.892540 0.892540
5811.970215 0.000000 1326.006836 0.000000 0.392297 0.000000 0.919839 0.865893 0.865893 0.865893
5790.012695 0.000000 1315.496216 0.000000 0.160137 0.000000 0.987095 0.884160 0.884160 0.884160
5799.144043 0.000000 1319.126587 0.000000 0.829667 0.000000 -0.558259 0.905323 0.905323 0.905323
5804.512695 0.000000 1316.077026 0.000000 0.838098 0.000000 0.545520 0.892221 0.892221 0.892221
5810.472656 0.000000 1334.253052 0.000000 0.749892 0.000000 -0.661560 0.916243 0.916243 0.916243
5764.549805 0.000000 1317.719727 0.000000 0.642204 0.000000 0.766534 0.890188 0.890188 0.890188
5764.657715 0.000000 1304.013916 0.000000 0.566281 0.000000 0.824212 0.882585 0.882585 0.882585
5770.468750 0.000000 1304.758667 0.000000 0.759171 0.000000 0.650891 0.888852 0.888852 0.888852
5807.539551 0.000000 1327.886475 0.000000 0.251365 0.000000 -0.967892 0.938460 0.938460 0.938460
5800.455566 0.000000 1309.842163 0.000000 0.998893 0.000000 -0.047035 0.900952 0.900952 0.900952
5811.805664 0.000000 1330.233154 0.000000 0.677064 0.000000 -0.735924 0.927874 0.927874 0.927874
5808.572266 0.000000 1331.244141 0.000000 0.979589 0.000000 -0.201009 0.906821 0.906821 0.906821
5760.798828 0.000000 1359.528320 0.000000 0.190548 0.000000 0.981678 0.893803 0.893803 0.893803
5782.270508 0.000000 1375.103760 0.000000 0.522041 0.000000 0.852920 0.886228 0.886228 0.886228
5770.678223 0.000000 1344.458740 0.000000 0.351857 0.000000 -0.936054 0.902722 0.902722 0.902722
5810.993652 0.000000 1380.506226 0.000000 0.252558 0.000000 -0.967582 0.911823 0.911823 0.911823
5775.737793 0.000000 1389.029907 0.000000 0.190838 0.000000 -0.981622 0.915490 0.915490 0.915490
5796.645020 0.000000 1376.802246 0.000000 0.250888 0.000000 0.968016 0.888162 0.888162 0.888162
5818.566406 0.000000 1370.264893 0.000000 0.717147 0.000000 -0.696922 0.906930 0.906930 0.906930
5786.266602 0.000000 1385.477417 0.000000 0.914545 0.000000 -0.404485 0.903742 0.903742 0.903742
5819.754395 0.000000 1387.481323 0.000000 0.999768 0.000000 -0.021542 0.900097 0.900097 0.900097
5805.186035 0.000000 1386.972412 0.000000 0.990325 0.000000 0.138768 0.899062 0.899062 0.899062
5820.566895 0.000000 1379.823730 0.000000 0.182914 0.000000 0.983129 0.884420 0.884420 0.884420
5778.921875 0.000000 1381.891113 0.000000 0.104501 0.000000 0.994525 0.880235 0.880235 0.880235
5804.512695 0.000000 1380.061401 0.000000 0.518782 0.000000 -0.854906 0.913823 0.913823 0.913823
5825.264648 0.000000 1386.683228 0.000000 0.410951 0.000000 -0.911657 0.905156 0.905156 0.905156
5831.850098 0.000000 1393.540039 0.000000 0.956762 0.000000 -0.290872 0.902653 0.902653 0.902653
5823.519531 0.000000 1368.550415 0.000000 0.534733 0.000000 0.845021 0.890953 0.890953 0.890953
5824.002930 0.000000 1377.837524 0.000000 0.999911 0.000000 0.013346 0.899910 0.899910 0.899910
5760.798828 0.000000 1423.512695 0.000000 0.290792 0.000000 0.956786 0.891401 0.891401 0.891401
5796.501465 0.000000 1453.573853 0.000000 0.500265 0.000000 0.865873 0.897648 0.897648 0.897648
5799.618164 0.000000 1469.596924 0.000000 0.513249 0.000000 0.858240 0.897682 0.897682 0.897682
5776.363281 0.000000 1425.073853 0.000000 0.858723 0.000000 0.512440 0.891538 0.891538 0.891538
5790.611328 0.000000 1463.590088 0.000000 0.841954 0.000000 0.539550 0.896158 0.896158 0.896158
5804.939941 0.000000 1460.111572 0.000000 0.736613 0.000000 -0.676314 0.906675 0.906675 0.906675
5784.312012 0.000000 1429.988403 0.000000 0.860809 0.000000 -0.508928 0.905998 0.905998 0.905998
5782.967773 0.000000 1458.071777 0.000000 0.013703 0.000000 0.999906 0.889504 0.889504 0.889504
5768.098145 0.000000 1427.984375 0.000000 0.391959 0.000000 -0.919983 0.910498 0.910498 0.910498
5789.995605 0.000000 1456.323364 0.000000 0.591223 0.000000 -0.806508 0.908432 0.908432 0.908432
5782.024414 0.000000 1421.975952 0.000000 0.910669 0.000000 -0.413137 0.904785 0.904785 0.904785
5779.172852 0.000000 1429.135132 0.000000 0.447186 0.000000 0.894441 0.877611 0.877611 0.877611
5844.254883 0.000000 1466.702515 0.000000 0.870444 0.000000 -0.492268 0.904626 0.904626 0.904626
5846.262695 0.000000 1439.088135 0.000000 0.304259 0.000000 0.952589 0.888661 0.888661 0.888661
5825.264648 0.000000 1450.667603 0.000000 0.629085 0.000000 0.777336 0.895999 0.895999 0.895999
5863.610352 0.000000 1469.596924 0.000000 0.511243 0.000000 -0.859436 0.909295 0.909295 0.909295
5840.355469 0.000000 1425.073853 0.000000 0.973546 0.000000 -0.228492 0.902072 0.902072 0.902072
5883.839844 0.000000 1468.376953 0.000000 0.908154 0.000000 -0.418636 0.902912 0.902912 0.902912
5873.650879 0.000000 1468.048706 0.000000 0.904842 0.000000 0.425748 0.896047 0.896047 0.896047
5831.850098 0.000000 1457.524414 0.000000 0.125190 0.000000 0.992133 0.890258 0.890258 0.890258
5848.304199 0.000000 1429.988403 0.000000 0.185482 0.000000 -0.982648 0.912441 0.912441 0.912441
5839.494629 0.000000 1434.243896 0.000000 0.721580 0.000000 -0.692331 0.905155 0.905155 0.905155
5823.790039 0.000000 1458.772827 0.000000 0.818552 0.000000 0.574432 0.895875 0.895875 0.895875
5878.342285 0.000000 1472.392822 0.000000 0.971697 0.000000 -0.236231 0.902679 0.902679 0.902679
5866.274414 0.000000 1479.587280 0.000000 0.244297 0.000000 -0.969700 0.905950 0.905950 0.905950
5857.078125 0.000000 1492.552612 0.000000 0.861698 0.000000 -0.507421 0.904783 0.904783 0.904783
5858.784668 0.000000 1472.203125 0.000000 0.725517 0.000000 0.688204 0.896589 0.896589 0.896589
5844.863281 0.000000 1471.994629 0.000000 0.584879 0.000000 -0.811121 0.908503 0.908503 0.908503
5870.838867 0.000000 1473.068726 0.000000 0.929485 0.000000 0.368859 0.896605 0.896605 0.896605
5935.559570 0.000000 1365.615234 0.000000 0.344807 0.000000 -0.938674 0.905477 0.905477 0.905477
5915.648438 0.000000 1351.336548 0.000000 0.328784 0.000000 -0.944405 0.908330 0.908330 0.908330
5924.485840 0.000000 1389.589478 0.000000 0.136754 0.000000 -0.990605 0.909664 0.909664 0.909664
5927.602539 0.000000 1405.612549 0.000000 0.679461 0.000000 -0.733711 0.905553 0.905553 0.905553
5930.266602 0.000000 1351.618530 0.000000 0.913766 0.000000 -0.406241 0.904700 0.904700 0.904700
5924.629395 0.000000 1376.802246 0.000000 0.630510 0.000000 -0.776181 0.907986 0.907986 0.907986
5946.550781 0.000000 1370.264893 0.000000 0.969349 0.000000 -0.245689 0.901673 0.901673 0.901673
5914.250977 0.000000 1385.477417 0.000000 0.949022 0.000000 0.315209 0.897838 0.897838 0.897838
5918.595703 0.000000 1399.605713 0.000000 0.885861 0.000000 0.463951 0.897832 0.897832 0.897832
5922.776855 0.000000 1344.234375 0.000000 0.065407 0.000000 -0.997859 0.910147 0.910147 0.910147
5937.643066 0.000000 1404.064331 0.000000 0.664642 0.000000 -0.747162 0.903792 0.903792 0.903792
5937.040039 0.000000 1357.153564 0.000000 0.806100 0.000000 0.591779 0.894309 0.894309 0.894309
5928.822754 0.000000 1360.083984 0.000000 0.778635 0.000000 0.627477 0.895428 0.895428 0.895428
5922.803711 0.000000 1354.816772 0.000000 0.976894 0.000000 0.213722 0.896612 0.896612 0.896612
5942.652832 0.000000 1364.198120 0.000000 0.038768 0.000000 0.999248 0.886231 0.886231 0.886231
5940.800781 0.000000 1373.894775 0.000000 0.866388 0.000000 0.499372 0.895301 0.895301 0.895301
5926.232910 0.000000 1396.060425 0.000000 0.733834 0.000000 0.679329 0.893288 0.893288 0.893288
5952.775391 0.000000 1359.528320 0.000000 0.985363 0.000000 0.170469 0.898845 0.898845 0.898845
5974.247070 0.000000 1375.103760 0.000000 0.666893 0.000000 -0.745153 0.907556 0.907556 0.907556
5953.249023 0.000000 1386.683228 0.000000 0.725673 0.000000 -0.688040 0.903410 0.903410 0.903410
5962.654785 0.000000 1344.458740 0.000000 0.588353 0.000000 0.808604 0.897884 0.897884 0.897884
5956.834961 0.000000 1402.227905 0.000000 0.434829 0.000000 0.900513 0.897481 0.897481 0.897481
5968.339844 0.000000 1361.089478 0.000000 0.544347 0.000000 -0.838860 0.902236 0.902236 0.902236
5967.714355 0.000000 1389.029907 0.000000 0.701146 0.000000 0.713018 0.892866 0.892866 0.892866
5978.243164 0.000000 1385.477417 0.000000 0.705300 0.000000 0.708909 0.896459 0.896459 0.896459
5960.948730 0.000000 1353.917358 0.000000 0.596665 0.000000 -0.802491 0.910464 0.910464 0.910464
5959.834473 0.000000 1393.540039 0.000000 0.559266 0.000000 0.828988 0.884629 0.884629 0.884629
5976.288574 0.000000 1366.004028 0.000000 0.935529 0.000000 0.353250 0.897566 0.897566 0.897566
5960.074707 0.000000 1364.000000 0.000000 0.763980 0.000000 0.645240 0.895272 0.895272 0.895272
5964.701172 0.000000 1400.119873 0.000000 0.765600 0.000000 -0.643317 0.904710 0.904710 0.904710
5970.898438 0.000000 1381.891113 0.000000 0.957464 0.000000 -0.288554 0.902631 0.902631 0.902631
5981.989258 0.000000 1379.480591 0.000000 0.989929 0.000000 0.141562 0.898404 0.898404 0.898404
5959.530273 0.000000 1387.164307 0.000000 0.113106 0.000000 -0.993583 0.916374 0.916374 0.916374
5965.256836 0.000000 1393.331421 0.000000 0.725845 0.000000 0.687858 0.888070 0.888070 0.888070
5938.978027 0.000000 1444.490601 0.000000 0.841199 0.000000 -0.540726 0.901284 0.901284 0.901284
5930.266602 0.000000 1415.602905 0.000000 0.708059 0.000000 -0.706153 0.903523 0.903523 0.903523
5946.550781 0.000000 1434.249268 0.000000 0.315079 0.000000 0.949066 0.894382 0.894382 0.894382
5922.776855 0.000000 1408.218750 0.000000 0.935610 0.000000 -0.353035 0.901621 0.901621 0.901621
5947.738770 0.000000 1451.465698 0.000000 0.759823 0.000000 -0.650130 0.912722 0.912722 0.912722
5948.551270 0.000000 1443.808105 0.000000 0.624870 0.000000 0.780729 0.887923 0.887923 0.887923
5928.716309 0.000000 1409.727417 0.000000 0.185014 0.000000 -0.982736 0.915556 0.915556 0.915556
6007.913574 0.000000 1460.010376 0.000000 0.986847 0.000000 -0.161658 0.900365 0.900365 0.900365
5953.249023 0.000000 1450.667603 0.000000 0.940664 0.000000 -0.339339 0.903112 0.903112 0.903112
5991.594727 0.000000 1469.596924 0.000000 0.605401 0.000000 -0.795920 0.902068 0.902068 0.902068
5959.440430 0.000000 1436.980713 0.000000 0.533836 0.000000 0.845588 0.893208 0.893208 0.893208
5996.916504 0.000000 1460.111572 0.000000 0.318429 0.000000 0.947947 0.891596 0.891596 0.891596
6001.635254 0.000000 1468.048706 0.000000 0.409049 0.000000 0.912512 0.869009 0.869009 0.869009
5951.503906 0.000000 1432.534790 0.000000 0.917831 0.000000 0.396971 0.896331 0.896331 0.896331
5951.987305 0.000000 1441.821899 0.000000 0.643557 0.000000 -0.765398 0.909793 0.909793 0.909793
6002.449219 0.000000 1462.221802 0.000000 0.544352 0.000000 0.838857 0.888820 0.888820 0.888820
5996.220215 0.000000 1465.877930 0.000000 0.912331 0.000000 -0.409453 0.905687 0.905687 0.905687
5972.239258 0.000000 1530.686890 0.000000 0.070610 0.000000 0.997504 0.889888 0.889888 0.889888
5999.551758 0.000000 1493.583984 0.000000 0.534200 0.000000 0.845358 0.895474 0.895474 0.895474
6006.326660 0.000000 1472.392822 0.000000 0.940108 0.000000 -0.340877 0.904689 0.904689 0.904689
6002.970215 0.000000 1508.474976 0.000000 0.855244 0.000000 0.518226 0.896328 0.896328 0.896328
5994.258789 0.000000 1479.587280 0.000000 0.365205 0.000000 0.930927 0.875795 0.875795 0.875795
6009.684082 0.000000 1485.166138 0.000000 0.860543 0.000000 -0.509378 0.903603 0.903603 0.903603
5982.587891 0.000000 1527.574463 0.000000 0.999783 0.000000 -0.020809 0.900094 0.900094 0.900094
5974.944336 0.000000 1522.056152 0.000000 0.943623 0.000000 -0.331023 0.903032 0.903032 0.903032
6001.032227 0.000000 1485.122314 0.000000 0.493065 0.000000 0.869992 0.873920 0.873920 0.873920
5998.823242 0.000000 1473.068726 0.000000 0.274058 0.000000 -0.961713 0.931962 0.931962 0.931962
6004.157715 0.000000 1478.943848 0.000000 0.970680 0.000000 0.240376 0.894546 0.894546 0.894546
5992.708496 0.000000 1473.711792 0.000000 0.984265 0.000000 0.176700 0.898004 0.898004 0.898004
5999.126465 0.000000 1480.514893 0.000000 0.931396 0.000000 -0.364006 0.911720 0.911720 0.911720
6002.492676 0.000000 1475.089844 0.000000 0.308203 0.000000 -0.951321 0.933905 0.933905 0.933905
5996.796875 0.000000 1476.566650 0.000000 0.807452 0.000000 -0.589934 0.917013 0.917013 0.917013
5972.847656 0.000000 1535.979004 0.000000 0.947671 0.000000 -0.319249 0.901460 0.901460 0.901460
"}
