912 = {

    # Misc
    culture = silver_dwarvish
    religion = cult_of_the_dame
	holding = castle_holding

    # History
}

308 = {

    # Misc
    culture = silver_dwarvish
    religion = cult_of_the_dame
	holding = city_holding

    # History
}

271 = {

    # Misc
    culture = cliff_gnomish
    religion = cult_of_the_dame

    # History
}

900 = {

    # Misc
    culture = moon_elvish
    religion = cult_of_the_dame

    # History
}

259 = {

    # Misc
    culture = esmari
    religion = cult_of_the_dame

    # History
}

911 = {

    # Misc
    culture = esmari
    religion = cult_of_the_dame

    # History
}

260 = {

    # Misc
    culture = esmari
    religion = cult_of_the_dame

    # History
}

266 = {

    # Misc
    culture = esmari
    religion = cult_of_the_dame

    # History
}

267 = {

    # Misc
    culture = esmari
    religion = cult_of_the_dame

    # History
}

264 = {

    # Misc
    culture = ryalani
    religion = cult_of_the_dame

    # History
}

917 = {

    # Misc
    culture = ryalani
    religion = cult_of_the_dame

    # History
}

265 = {

    # Misc
    culture = ryalani
    religion = cult_of_the_dame

    # History
}

575 = {

    # Misc
    culture = ryalani
    religion = cult_of_the_dame

    # History
}

269 = {

    # Misc
    culture = esmari
    religion = cult_of_the_dame

    # History
}

905 = {

    # Misc
    culture = esmari
    religion = cult_of_the_dame

    # History
}

275 = {

    # Misc
    culture = esmari
    religion = cult_of_the_dame

    # History
}

274 = {

    # Misc
    culture = ryalani
    religion = cult_of_the_dame

    # History
}

279 = {

    # Misc
    culture = ryalani
    religion = cult_of_the_dame

    # History
}

333 = {

    # Misc
    culture = ryalani
    religion = cult_of_the_dame

    # History
}

916 = {

    # Misc
    culture = ryalani
    religion = cult_of_the_dame

    # History
}

297 = {

    # Misc
    culture = ryalani
    religion = cult_of_the_dame

    # History
}

280 = {

    # Misc
    culture = ryalani
    religion = cult_of_the_dame

    # History
}

44 = {

    # Misc
    culture = ryalani
    religion = cult_of_the_dame

    # History
}

301 = {

    # Misc
    culture = ryalani
    religion = cult_of_the_dame

    # History
}

576 = {

    # Misc
    culture = ryalani
    religion = cult_of_the_dame

    # History
}

302 = {

    # Misc
    culture = esmari
    religion = cult_of_the_dame

    # History
}

309 = {

    # Misc
    culture = esmari
    religion = cult_of_the_dame

    # History
}

310 = {

    # Misc
    culture = esmari
    religion = cult_of_the_dame

    # History
}

311 = {

    # Misc
    culture = esmari
    religion = cult_of_the_dame

    # History
}

320 = {

    # Misc
    culture = esmari
    religion = cult_of_the_dame

    # History
}

901 = {

    # Misc
    culture = esmari
    religion = cult_of_the_dame

    # History
}

902 = {

    # Misc
    culture = esmari
    religion = cult_of_the_dame

    # History
}

263 = {

    # Misc
    culture = esmari
    religion = cult_of_the_dame

    # History
}

268 = {

    # Misc
    culture = esmari
    religion = cult_of_the_dame

    # History
}

270 = {

    # Misc
    culture = esmari
    religion = cult_of_the_dame

    # History
}

272 = {

    # Misc
    culture = esmari
    religion = cult_of_the_dame

    # History
}

273 = {

    # Misc
    culture = esmari
    religion = cult_of_the_dame

    # History
}

909 = {

    # Misc
    culture = esmari
    religion = cult_of_the_dame

    # History
}