22 = {

    # Misc
    culture = carnetori
    religion = cult_of_the_dame

    # History

}

30 = {

    # Misc
    culture = carnetori
    religion = cult_of_the_dame

    # History

}

57 = {

    # Misc
    culture = carnetori
    religion = cult_of_the_dame
	holding = city_holding

    # History

}

19 = {

    # Misc
    culture = carnetori
    religion = cult_of_the_dame

    # History

}